OragnisationName,FirstName,LastName,Phone 1,Phone 2,Extn,Email 1,Email 2,Chat 1,Chat 2,Designation,Unit No,Street,City,Pincode
BSNL,Jaydip,Parmar,9191919191,,,,,,,Manager,,,Surat,
BSNL,Pranav,Mehta,9292929292,,,,,,,Manager,,,Surat,
